1000	19252	7515	18042	18817
1200	18135	7097	16969	17784
1400	17538	5231	16475	17277
1600	16703	3838	15759	16489
1800	16805	3322	15877	16626
2000	16600	2931	15689	16391
2200	16332	2657	15451	16145
2400	16170	2533	15295	15982
2600	16336	2598	15535	16128
